{
  "_class": "shapePath",
  "booleanOperation": -1,
  "do_objectID": "78D80536-FE77-4EDB-903D-AA5AFCB2EBF9",
  "edited": true,
  "exportOptions": {
    "_class": "exportOptions",
    "exportFormats": [
    ],
    "includedLayerIds": [
    ],
    "layerOptions": 0,
    "shouldTrim": false
  },
  "frame": {
    "_class": "rect",
    "constrainProportions": false,
    "height": 9.126722332650177,
    "width": 6.597835051546388,
    "x": -8.881784197001256e-16,
    "y": -1.373471783041431e-16
  },
  "isFlippedHorizontal": false,
  "isFlippedVertical": false,
  "isLocked": false,
  "isVisible": true,
  "layerListExpandedType": 0,
  "name": "Fill-16-path",
  "nameIsFixed": false,
  "path": {
    "_class": "path",
    "isClosed": true,
    "pointRadiusBehaviour": 0,
    "points": [
      {
        "_class": "curvePoint",
        "cornerRadius": 0,
        "curveFrom": "{0, 1}",
        "curveMode": 1,
        "curveTo": "{0, 1}",
        "hasCurveFrom": false,
        "hasCurveTo": false,
        "point": "{0, 1}"
      },
      {
        "_class": "curvePoint",
        "cornerRadius": 0,
        "curveFrom": "{1, 1}",
        "curveMode": 1,
        "curveTo": "{1, 1}",
        "hasCurveFrom": false,
        "hasCurveTo": false,
        "point": "{1, 1}"
      },
      {
        "_class": "curvePoint",
        "cornerRadius": 0,
        "curveFrom": "{0.54813214411020639, -0.012392604256652015}",
        "curveMode": 4,
        "curveTo": "{0.57023618266762699, 0.037157649216147698}",
        "hasCurveFrom": true,
        "hasCurveTo": false,
        "point": "{0.57023618266762699, 0.037157649216147698}"
      },
      {
        "_class": "curvePoint",
        "cornerRadius": 0,
        "curveFrom": "{0.42974535113474793, 0.037157649216147698}",
        "curveMode": 4,
        "curveTo": "{0.45184938969216853, -0.012379161431510181}",
        "hasCurveFrom": false,
        "hasCurveTo": true,
        "point": "{0.42974535113474793, 0.037157649216147698}"
      },
      {
        "_class": "curvePoint",
        "cornerRadius": 0,
        "curveFrom": "{0, 1}",
        "curveMode": 1,
        "curveTo": "{0, 1}",
        "hasCurveFrom": false,
        "hasCurveTo": false,
        "point": "{0, 1}"
      }
    ]
  },
  "resizingConstraint": 63,
  "resizingType": 0,
  "rotation": 0,
  "shouldBreakMaskChain": false
}