{
  "orientation" : 0,
  "updateDelay" : 0.29999999999999999,
  "designModeSelected" : 0,
  "cachedDeviceHeight" : 0,
  "contentScale" : 2,
  "cachedDeviceWidth" : 0,
  "deviceType" : "fullscreen",
  "sharedPrototype" : true,
  "propertyPanelToggleStates" : {

  },
  "projectId" : "6D1A07D0-F000-450E-8C98-FF987034EED5",
  "deviceOrientation" : 0,
  "selectedHand" : "",
  "showBezel" : true,
  "foldedCodeRanges" : [
    "{106, 198}",
    "{397, 50}",
    "{503, 166}",
    "{818, 170}",
    "{1056, 175}",
    "{1301, 31}",
    "{1407, 1589}",
    "{3204, 1669}",
    "{4912, 56}"
  ],
  "deviceScale" : 1
}