{
  "_class": "shapeGroup",
  "clippingMaskMode": 0,
  "do_objectID": "DF381F12-E0C8-415C-ACDD-51A4E6A4A956",
  "exportOptions": {
    "_class": "exportOptions",
    "exportFormats": [
    ],
    "includedLayerIds": [
    ],
    "layerOptions": 0,
    "shouldTrim": false
  },
  "frame": {
    "_class": "rect",
    "constrainProportions": false,
    "height": 4,
    "width": 336,
    "x": 120,
    "y": 0
  },
  "hasClickThrough": false,
  "hasClippingMask": false,
  "isFlippedHorizontal": false,
  "isFlippedVertical": false,
  "isLocked": false,
  "isVisible": true,
  "layerListExpandedType": 1,
  "layers": [
    {
      "class": "rectangle",
      "id": "C6A2EC9C-8F34-43A1-BD07-903964296336"
    }
  ],
  "name": "Rectangle 5 Copy 2",
  "nameIsFixed": false,
  "resizingConstraint": 63,
  "resizingType": 0,
  "rotation": 0,
  "shouldBreakMaskChain": false,
  "style": {
    "sharedObjectID": "65802A2B-CB02-4F1B-A5DA-C45CA7D3EB92"
  },
  "windingRule": 1
}