{
  "_class": "group",
  "do_objectID": "0EF211F5-FE31-4339-B9AE-5C8F94F4E015",
  "exportOptions": {
    "_class": "exportOptions",
    "exportFormats": [
    ],
    "includedLayerIds": [
    ],
    "layerOptions": 0,
    "shouldTrim": false
  },
  "frame": {
    "_class": "rect",
    "constrainProportions": false,
    "height": 28,
    "width": 647,
    "x": 607,
    "y": 382
  },
  "hasClickThrough": false,
  "isFlippedHorizontal": false,
  "isFlippedVertical": false,
  "isLocked": false,
  "isVisible": true,
  "layerListExpandedType": 2,
  "layers": [
    {
      "class": "shapeGroup",
      "id": "40B62CF8-4538-460E-A9C6-63637E07CCD1"
    },
    {
      "class": "shapeGroup",
      "id": "18EF79B2-E915-4294-8C54-DFED8284EEE2"
    },
    {
      "class": "shapeGroup",
      "id": "65F532EB-1E8E-4FD3-974D-C6AFF9BF160F"
    },
    {
      "class": "text",
      "id": "A3E396D7-3DF5-446E-9710-BB6C0F0504B3"
    }
  ],
  "name": "new_epic copy 6",
  "nameIsFixed": true,
  "resizingConstraint": 63,
  "resizingType": 0,
  "rotation": 0,
  "shouldBreakMaskChain": false,
  "style": {
    "_class": "style",
    "endDecorationType": 0,
    "miterLimit": 10,
    "startDecorationType": 0
  }
}