{
  "_class": "shapePath",
  "booleanOperation": 0,
  "do_objectID": "ACA9DE2D-9DB4-4664-9327-234004D4579F",
  "edited": true,
  "exportOptions": {
    "_class": "exportOptions",
    "exportFormats": [
    ],
    "includedLayerIds": [
    ],
    "layerOptions": 0,
    "shouldTrim": false
  },
  "frame": {
    "_class": "rect",
    "constrainProportions": false,
    "height": 12,
    "width": 4,
    "x": 7,
    "y": 1
  },
  "isFlippedHorizontal": false,
  "isFlippedVertical": false,
  "isLocked": false,
  "isVisible": true,
  "layerListExpandedType": 0,
  "name": "Rectangle 2",
  "nameIsFixed": false,
  "path": {
    "_class": "path",
    "isClosed": true,
    "pointRadiusBehaviour": 1,
    "points": [
      {
        "_class": "curvePoint",
        "cornerRadius": 0,
        "curveFrom": "{0, 0.16666666666666666}",
        "curveMode": 1,
        "curveTo": "{0, 0.16666666666666666}",
        "hasCurveFrom": false,
        "hasCurveTo": false,
        "point": "{0, 0.16666666666666666}"
      },
      {
        "_class": "curvePoint",
        "cornerRadius": 0,
        "curveFrom": "{0.38807118745769831, 0.16666666666666666}",
        "curveMode": 4,
        "curveTo": "{0.25, 0.16666666666666666}",
        "hasCurveFrom": true,
        "hasCurveTo": false,
        "point": "{0.25, 0.16666666666666666}"
      },
      {
        "_class": "curvePoint",
        "cornerRadius": 0,
        "curveFrom": "{0.5, 0.24999999999999997}",
        "curveMode": 4,
        "curveTo": "{0.5, 0.20397627084743386}",
        "hasCurveFrom": false,
        "hasCurveTo": true,
        "point": "{0.5, 0.24999999999999997}"
      },
      {
        "_class": "curvePoint",
        "cornerRadius": 0,
        "curveFrom": "{0.5, 1}",
        "curveMode": 1,
        "curveTo": "{0.5, 1}",
        "hasCurveFrom": false,
        "hasCurveTo": false,
        "point": "{0.5, 1}"
      },
      {
        "_class": "curvePoint",
        "cornerRadius": 0,
        "curveFrom": "{1, 1}",
        "curveMode": 1,
        "curveTo": "{1, 1}",
        "hasCurveFrom": false,
        "hasCurveTo": false,
        "point": "{1, 1}"
      },
      {
        "_class": "curvePoint",
        "cornerRadius": 0,
        "curveFrom": "{1, 0.11192881254230143}",
        "curveMode": 4,
        "curveTo": "{1, 0.24999999999999997}",
        "hasCurveFrom": true,
        "hasCurveTo": false,
        "point": "{1, 0.24999999999999997}"
      },
      {
        "_class": "curvePoint",
        "cornerRadius": 0,
        "curveFrom": "{0.25, 0}",
        "curveMode": 4,
        "curveTo": "{0.66421356237309537, -2.7755575615628914e-17}",
        "hasCurveFrom": false,
        "hasCurveTo": true,
        "point": "{0.25, 0}"
      },
      {
        "_class": "curvePoint",
        "cornerRadius": 0,
        "curveFrom": "{0, 0}",
        "curveMode": 1,
        "curveTo": "{0, 0}",
        "hasCurveFrom": false,
        "hasCurveTo": false,
        "point": "{0, 0}"
      }
    ]
  },
  "resizingConstraint": 63,
  "resizingType": 0,
  "rotation": 0,
  "shouldBreakMaskChain": false
}