{
  "_class": "group",
  "do_objectID": "55BDA017-72B6-4D4F-A42C-04A6A9E03A92",
  "exportOptions": {
    "_class": "exportOptions",
    "exportFormats": [
    ],
    "includedLayerIds": [
    ],
    "layerOptions": 0,
    "shouldTrim": false
  },
  "frame": {
    "_class": "rect",
    "constrainProportions": false,
    "height": 28,
    "width": 527,
    "x": 607,
    "y": 1452
  },
  "hasClickThrough": false,
  "isFlippedHorizontal": false,
  "isFlippedVertical": false,
  "isLocked": false,
  "isVisible": true,
  "layerListExpandedType": 2,
  "layers": [
    {
      "class": "shapeGroup",
      "id": "B815EB07-29A6-497C-AB56-E1B2DE04A48C"
    },
    {
      "class": "shapeGroup",
      "id": "07D35FD9-9ACB-4F62-AC9B-9AC8BF9F6867"
    },
    {
      "class": "shapeGroup",
      "id": "F162842C-AF86-40B0-9D62-6BD4C7DF0927"
    },
    {
      "class": "shapeGroup",
      "id": "7E9BF705-CABA-4F24-BBFE-B2D03B0F6AD7"
    },
    {
      "class": "text",
      "id": "C433611D-95BE-42A4-BBAA-45526F56F5C1"
    }
  ],
  "name": "new_epic copy 17",
  "nameIsFixed": true,
  "resizingConstraint": 63,
  "resizingType": 0,
  "rotation": 0,
  "shouldBreakMaskChain": false,
  "style": {
    "_class": "style",
    "endDecorationType": 0,
    "miterLimit": 10,
    "startDecorationType": 0
  }
}