{
  "_class": "group",
  "do_objectID": "790E6164-C81A-4878-8F0C-466DEC1697BF",
  "exportOptions": {
    "_class": "exportOptions",
    "exportFormats": [
    ],
    "includedLayerIds": [
    ],
    "layerOptions": 0,
    "shouldTrim": false
  },
  "frame": {
    "_class": "rect",
    "constrainProportions": false,
    "height": 32,
    "width": 520,
    "x": 8,
    "y": 4
  },
  "hasClickThrough": false,
  "isFlippedHorizontal": false,
  "isFlippedVertical": false,
  "isLocked": false,
  "isVisible": true,
  "layerListExpandedType": 2,
  "layers": [
    {
      "class": "symbolInstance",
      "id": "1667E116-8077-4553-90AE-4C07C13C3EED"
    },
    {
      "class": "symbolInstance",
      "id": "DCD27113-232A-4E9A-813E-FC6FCDC58E54"
    },
    {
      "class": "symbolInstance",
      "id": "CE85978D-7256-4D12-BFBC-EB368D5F4357"
    },
    {
      "class": "symbolInstance",
      "id": "ACC63D3A-1B20-4B06-A7F7-951DBA87B63C"
    },
    {
      "class": "symbolInstance",
      "id": "5EC249BB-1A99-4978-B3C0-6804CF9566CB"
    },
    {
      "class": "symbolInstance",
      "id": "61F6549D-0E15-4F7B-967B-8C7D47160E09"
    },
    {
      "class": "symbolInstance",
      "id": "3B542FD3-794D-4EE2-8DF9-31A532FA2028"
    },
    {
      "class": "symbolInstance",
      "id": "F4DA1E3F-C3A4-41E5-8949-1738395F57C2"
    }
  ],
  "name": "left-aligned",
  "nameIsFixed": true,
  "resizingConstraint": 25,
  "resizingType": 0,
  "rotation": 0,
  "shouldBreakMaskChain": false,
  "style": {
    "_class": "style",
    "endDecorationType": 0,
    "miterLimit": 10,
    "startDecorationType": 0
  }
}