{
  "_class": "group",
  "do_objectID": "289401FA-F52C-44CF-9742-4C43957FCA23",
  "exportOptions": {
    "_class": "exportOptions",
    "exportFormats": [
    ],
    "includedLayerIds": [
    ],
    "layerOptions": 0,
    "shouldTrim": false
  },
  "frame": {
    "_class": "rect",
    "constrainProportions": false,
    "height": 82,
    "width": 1295,
    "x": 344,
    "y": 71
  },
  "hasClickThrough": false,
  "isFlippedHorizontal": false,
  "isFlippedVertical": false,
  "isLocked": false,
  "isVisible": true,
  "layerListExpandedType": 0,
  "layers": [
    {
      "class": "shapeGroup",
      "id": "8EDC3A7B-9891-4CD7-A993-F4689C513FAC"
    },
    {
      "class": "shapeGroup",
      "id": "8147AF7C-3E23-44A8-82FF-760D807732FC"
    },
    {
      "class": "symbolInstance",
      "id": "00016DB2-BD75-4033-9247-3AE2671A4D3A"
    },
    {
      "class": "symbolInstance",
      "id": "BD4687B6-7762-448B-B90D-620EF28E5192"
    },
    {
      "class": "symbolInstance",
      "id": "EDEEAA0D-8000-43F5-B943-5CFB6E83C006"
    },
    {
      "class": "symbolInstance",
      "id": "6B4B0C21-80F5-4F57-9586-58F829DFB4D6"
    },
    {
      "class": "shapeGroup",
      "id": "80235636-2D3F-4769-BCEB-30971C50CC6D"
    },
    {
      "class": "symbolInstance",
      "id": "146BB861-DDE8-4E07-9262-797E4B045979"
    },
    {
      "class": "symbolInstance",
      "id": "469786EB-00D5-406A-B73F-F9C7B22F6781"
    },
    {
      "class": "symbolInstance",
      "id": "4D5D3D83-4BE0-4928-A1EA-A91629106F4B"
    },
    {
      "class": "symbolInstance",
      "id": "21010256-60A4-4527-8038-D821F441430D"
    },
    {
      "class": "symbolInstance",
      "id": "CB141F23-59E6-4051-88EF-CE8064EDD490"
    },
    {
      "class": "symbolInstance",
      "id": "F1B5F2AB-15B1-4DE1-B9F9-CBE4E116665B"
    },
    {
      "class": "symbolInstance",
      "id": "E6575377-BAB1-4A70-A0CD-A43AE93B1BBE"
    },
    {
      "class": "symbolInstance",
      "id": "040245C5-4216-4DCC-A665-5D88E45E2048"
    },
    {
      "class": "symbolInstance",
      "id": "B1072F00-45AF-43D5-BCBC-ADD84D21E139"
    },
    {
      "class": "symbolInstance",
      "id": "0667DA74-2BDF-4156-A673-EDBDF88E47AA"
    },
    {
      "class": "symbolInstance",
      "id": "48C157BD-5C1C-43E0-A05F-BE84C839EC6B"
    },
    {
      "class": "symbolInstance",
      "id": "3EEBAE7D-DF4D-473F-AF5B-DC44F41B30D6"
    },
    {
      "class": "symbolInstance",
      "id": "E9C526BA-A97D-46BC-8D1B-7769467C0178"
    },
    {
      "class": "symbolInstance",
      "id": "A62E81D0-0FD2-4DCD-8248-4DE21975F350"
    },
    {
      "class": "symbolInstance",
      "id": "9C48974B-65C8-4FFD-9C38-FFF9C2D2E8D8"
    },
    {
      "class": "symbolInstance",
      "id": "F1CB1237-F2BB-43E5-9BFC-A905DDC1A149"
    },
    {
      "class": "symbolInstance",
      "id": "409B507F-6804-4AE9-A25C-FDBA7291DA06"
    },
    {
      "class": "symbolInstance",
      "id": "BD855E9F-40DA-4902-AECE-AFB04409646B"
    },
    {
      "class": "symbolInstance",
      "id": "6AE1C0C0-9EEF-4835-8E60-77D2FBF6EE74"
    },
    {
      "class": "symbolInstance",
      "id": "6659F41B-4137-42EA-A51D-DA5777F72EFC"
    },
    {
      "class": "symbolInstance",
      "id": "A449C0F6-871D-4156-9F32-E85FA4D4D5C3"
    },
    {
      "class": "symbolInstance",
      "id": "E6E5FF4E-E7B7-48A7-9F6A-4ADC8C01017B"
    },
    {
      "class": "symbolInstance",
      "id": "0F1D544C-D80C-4DD9-958B-B3EB9BDD42EB"
    },
    {
      "class": "symbolInstance",
      "id": "581E6BC4-0E97-4318-8D48-BB625874EA0F"
    },
    {
      "class": "symbolInstance",
      "id": "1C3AAFC6-F465-4A3D-9AA1-5E07F105F2DB"
    },
    {
      "class": "symbolInstance",
      "id": "A3E4D912-CFF6-4760-9C8D-D50D47A30200"
    },
    {
      "class": "symbolInstance",
      "id": "82355FD3-2EC2-45C1-B3E5-679D49E1D19A"
    },
    {
      "class": "symbolInstance",
      "id": "7F407DD6-026B-438D-AE6E-8B7079456CEC"
    },
    {
      "class": "symbolInstance",
      "id": "6B453D7F-A8DB-4DD8-90CD-66D2DBFAF9F7"
    },
    {
      "class": "symbolInstance",
      "id": "44A5FE08-281C-495B-88A7-08BCE15B0861"
    },
    {
      "class": "symbolInstance",
      "id": "CEF197B1-66A0-48CF-8751-E2C6D515301F"
    },
    {
      "class": "symbolInstance",
      "id": "EAE0D6D4-4CE9-4C23-B66B-1E4DCE0E2192"
    },
    {
      "class": "symbolInstance",
      "id": "BFABBBCC-C309-43BF-96A5-12AF82A2CD88"
    },
    {
      "class": "symbolInstance",
      "id": "5C79DDE8-A66E-4AA5-904F-9135DB5732D9"
    },
    {
      "class": "symbolInstance",
      "id": "A8E5D236-94AB-4241-A1F6-99754343C701"
    },
    {
      "class": "symbolInstance",
      "id": "A62D4D5E-3428-480E-93D3-2BCF83D8F674"
    },
    {
      "class": "symbolInstance",
      "id": "C8F80B5E-932D-4463-852A-070E25D02071"
    },
    {
      "class": "symbolInstance",
      "id": "06527FEC-D01E-433E-97F9-2EE8007EB8FE"
    },
    {
      "class": "symbolInstance",
      "id": "6CBCACD3-773D-44CA-A9B7-774F8C710814"
    },
    {
      "class": "symbolInstance",
      "id": "1567E89C-2A89-4975-BA4D-3B03AECFBB7A"
    },
    {
      "class": "symbolInstance",
      "id": "48C72923-8E58-487C-818F-21A072600058"
    },
    {
      "class": "symbolInstance",
      "id": "D4EBA5F2-2C40-4E7D-BDFC-330C5A4B49CD"
    },
    {
      "class": "symbolInstance",
      "id": "AE51DC62-3948-43A3-90B4-76573A45CE0C"
    },
    {
      "class": "symbolInstance",
      "id": "5365A84A-3B56-466B-A273-3ABC1F78EEB1"
    },
    {
      "class": "symbolInstance",
      "id": "FB3A035F-E7FB-4A00-9AFA-3F399DA2C792"
    },
    {
      "class": "symbolInstance",
      "id": "763600AF-56F1-42A8-8AB9-B0BBEA711367"
    },
    {
      "class": "symbolInstance",
      "id": "AFB1F769-E51B-423E-9E04-CE825F4E179C"
    },
    {
      "class": "symbolInstance",
      "id": "B5B79FFD-C496-4B0B-9573-7924A74E55F7"
    },
    {
      "class": "symbolInstance",
      "id": "98A52CD2-EE76-43B4-8B1D-6E30D8C42ED5"
    },
    {
      "class": "symbolInstance",
      "id": "700A419D-6423-481E-9DBF-8ECD3C8E7A94"
    },
    {
      "class": "symbolInstance",
      "id": "65E0D79E-05C3-4596-92D9-A29949B8A604"
    },
    {
      "class": "symbolInstance",
      "id": "B07BC26A-9397-4950-AC2D-9EA9369310BB"
    },
    {
      "class": "symbolInstance",
      "id": "64476909-F84F-48B7-9749-12EA9F467E58"
    },
    {
      "class": "symbolInstance",
      "id": "AB78D5CE-03A2-4727-B83A-EC7351E01D50"
    }
  ],
  "name": "timeline",
  "nameIsFixed": true,
  "resizingConstraint": 63,
  "resizingType": 0,
  "rotation": 0,
  "shouldBreakMaskChain": false,
  "style": {
    "_class": "style",
    "endDecorationType": 0,
    "miterLimit": 10,
    "startDecorationType": 0
  }
}